%YAML 1.1
%TAG !u! tag:unity3d.com,2011:
--- !u!21 &2100000
Material:
  serializedVersion: 6
  m_ObjectHideFlags: 0
  m_CorrespondingSourceObject: {fileID: 0}
  m_PrefabInstance: {fileID: 0}
  m_PrefabAsset: {fileID: 0}
  m_Name: mat_fx_fire_02
  m_Shader: {fileID: 200, guid: 0000000000000000f000000000000000, type: 0}
  m_ShaderKeywords: BlendAdd Clip_OFF FrameBlend_ON SoftParticles_ON VertLight_OFF
    _ALPHABLEND_ON _BLENDMODE_BLEND
  m_LightmapFlags: 0
  m_EnableInstancingVariants: 1
  m_DoubleSidedGI: 0
  m_CustomRenderQueue: -1
  stringTagMap: {}
  disabledShaderPasses: []
  m_SavedProperties:
    serializedVersion: 3
    m_TexEnvs:
    - _BumpMap:
        m_Texture: {fileID: 0}
        m_Scale: {x: 1, y: 1}
        m_Offset: {x: 0, y: 0}
    - _CutoutTex:
        m_Texture: {fileID: 0}
        m_Scale: {x: 1, y: 1}
        m_Offset: {x: 0, y: 0}
    - _DetailAlbedoMap:
        m_Texture: {fileID: 0}
        m_Scale: {x: 1, y: 1}
        m_Offset: {x: 0, y: 0}
    - _DetailMask:
        m_Texture: {fileID: 0}
        m_Scale: {x: 1, y: 1}
        m_Offset: {x: 0, y: 0}
    - _DetailNormalMap:
        m_Texture: {fileID: 0}
        m_Scale: {x: 1, y: 1}
        m_Offset: {x: 0, y: 0}
    - _EmissionMap:
        m_Texture: {fileID: 2800000, guid: 94a2ed6817826da4f8b7f7c1c7e7f6ec, type: 3}
        m_Scale: {x: 1, y: 1}
        m_Offset: {x: 0, y: 0}
    - _FireBook:
        m_Texture: {fileID: 2800000, guid: 94a2ed6817826da4f8b7f7c1c7e7f6ec, type: 3}
        m_Scale: {x: 1, y: 1}
        m_Offset: {x: 0, y: 0}
    - _MainTex:
        m_Texture: {fileID: 2800000, guid: 0152e34d879bd824db6f38da8f357687, type: 3}
        m_Scale: {x: 1, y: 1}
        m_Offset: {x: 0, y: 0}
    - _NoiseTex:
        m_Texture: {fileID: 0}
        m_Scale: {x: 1, y: 1}
        m_Offset: {x: 0, y: 0}
    - _Occlusion:
        m_Texture: {fileID: 0}
        m_Scale: {x: 1, y: 1}
        m_Offset: {x: 0, y: 0}
    - _ParallaxMap:
        m_Texture: {fileID: 0}
        m_Scale: {x: 1, y: 1}
        m_Offset: {x: 0, y: 0}
    - _Refract_TXT:
        m_Texture: {fileID: 2800000, guid: dbf91a18577ff3d45a5c47e5dcb15082, type: 3}
        m_Scale: {x: 1, y: 1}
        m_Offset: {x: 0, y: 0}
    - _SpecGlossMap:
        m_Texture: {fileID: 0}
        m_Scale: {x: 1, y: 1}
        m_Offset: {x: 0, y: 0}
    - _node_2:
        m_Texture: {fileID: 2800000, guid: a38dd84ac5ed6a94e9ff5967699b8692, type: 3}
        m_Scale: {x: 1, y: 1}
        m_Offset: {x: 0, y: 0}
    - _node_20:
        m_Texture: {fileID: 2800000, guid: dbf91a18577ff3d45a5c47e5dcb15082, type: 3}
        m_Scale: {x: 1, y: 1}
        m_Offset: {x: 0, y: 0}
    m_Floats:
    - DstMode: 1
    - SrcMode: 5
    - _AlphaTestRef: 0.5
    - _BlendMode: 1
    - _BumpScale: 1
    - _CullMode: 0
    - _Cutoff: 0.5
    - _Cutout: 0.2
    - _CutoutThreshold: 0.015
    - _DetailAlbedoMultiplier: 2
    - _DetailMode: 0
    - _DetailNormalMapScale: 1
    - _DstBlend: 10
    - _DstMode: 10
    - _EmissionScale: 1
    - _FogColorMultiplier: 0
    - _FresnelFadeFactor: 3
    - _FresnelPow: 5
    - _FresnelR0: 0.04
    - _Glossiness: 1
    - _InvFade: 3
    - _Lightmapping: 0
    - _Mode: 2
    - _OcclusionStrength: 1
    - _Parallax: 0.02
    - _Refract_Tile: 0.1
    - _Refraction_Amount: 0.05
    - _SoftInverted: 0
    - _SrcBlend: 5
    - _SrcMode: 5
    - _UVPrim: 0
    - _UVSec: 0
    - _UseCutout: 0
    - _UseCutoutTex: 0
    - _UseCutoutThreshold: 0
    - _UseFrameBlending: 0
    - _UseFresnel: 0
    - _UseFresnelFading: 0
    - _UseNoiseDistortion: 0
    - _UseParticlesAlphaCutout: 0
    - _UseSoft: 0
    - _UseSoftCutout: 0
    - _UseVertexStreamRandom: 0
    - _ZWrite: 0
    - _ZWriteMode: 0
    - _emiss_intensity: 0.2
    - _node_34: 0.1
    - _node_77: 0
    m_Colors:
    - _Color: {r: 0, g: 0, b: 0, a: 1}
    - _CutoutColor: {r: 1, g: 1, b: 1, a: 1}
    - _DistortionSpeedScale: {r: 1, g: -1, b: 0.15, a: 0.15}
    - _FogColorMultiplier: {r: 0, g: 0, b: 0, a: 0}
    - _FresnelColor: {r: 1, g: 1, b: 1, a: 1}
    - _SpecularColor: {r: 0, g: 0, b: 0, a: 1}
    - _Tiling: {r: 800, g: 400, b: 8, a: 4}
    - _TintColor: {r: 1, g: 0.6876267, b: 0.5955882, a: 1}
  m_BuildTextureStacks: []
