%YAML 1.1
%TAG !u! tag:unity3d.com,2011:
--- !u!162 &1
EditorUserSettings:
  m_ObjectHideFlags: 0
  serializedVersion: 4
  m_ConfigSettings:
    RecentlyUsedScenePath-0:
      value: 224247031146466908190530152710350e16153a202d357f1e201023eee51737ecf324e6eb083a313812ff350a394e0cfb071907f3280505051cf20223fa1d1201d511cb1d860a12c20d05
      flags: 0
    RecentlyUsedScenePath-1:
      value: 22424703114646682e27410439636a39562719292768162222662e10cbad1211a2d21fa9d73b3c377932fd3344085370c1090c05f318450f1403f25c5fea1e1a05dc
      flags: 0
    RecentlyUsedScenePath-2:
      value: 22424703114646682e27410439636a39562719292768162222662e10cbad1211a2d21fa9d73b3c377932fd3344085070c1090c05f318450f1403f25f5fea1e1a05dc
      flags: 0
    RecentlyUsedScenePath-3:
      value: 22424703114646680e0b0227036c6b1505033728262d25241d26123facf53a31f6fe
      flags: 0
    RecentlyUsedScenePath-4:
      value: 22424703114646680e0b0227036c6b150503563f22213229
      flags: 0
    RecentlyUsedScenePath-5:
      value: 22424703114646680e1c05320430103b1f035707293b2e7f192c0e27cfe52730acf238e0f323
      flags: 0
    RecentlyUsedScenePath-6:
      value: 224247031146466e3f3e3f2a11275a0259331139382734242426137cc6e9272cedf522e0e8347f183c0fe0721130082beb
      flags: 0
    RecentlyUsedScenePath-7:
      value: 224247031146466a183f196d3127501c13041b2f223c1905623a1c3ef2ec3107f1e433e7e2742a323016f6
      flags: 0
    RecentlyUsedScenePath-8:
      value: 22424703114646680e0b0227036c7c0914120a3a39262d1d283b1e36ece12621acf238e0f323
      flags: 0
    RecentlyUsedScenePath-9:
      value: 22424703114646680e0b0227036c7215151f3f233e2411313f67083debf42d
      flags: 0
    UnityEditor.ShaderGraph.Blackboard:
      value: 18135939215a0a5004000b0e15254b524c030a3f2964643d120d1230e9e93a3fd6e826abbd2e2d293c4ead313b08042de6030a0afa240c0d020be94c4ba75e435d8715fa32c70d15d11612dacc11fee5d3c5d1fe9ab1bf968e93e2ffcbc3e7e2f0b3ffe0e8b0be9af8ffaeffff8e85dd8390e3949c8899daa7
      flags: 0
    UnityEditor.ShaderGraph.FloatingWindowsLayout2:
      value: 181344140043005e1a220d3b1f364b524c0c5a27130c293326201334cee5322ca0bd30e8eb293a707b0fd0180b3d0a36fc0d3d04e649500d1002ee0b5dbd1d2c27c00ad113cb1e10e41f1addc80993b9859884a69ae6d8f0d1cda9e8fbfefaf9f9dea3fdb9ade882f0ffb0e1e380cafbf2c3adc18e9cd285a2908b81e8819c8395949c9483d58e8997ddbd90bf
      flags: 0
    UnityEditor.ShaderGraph.InspectorWindow:
      value: 18135939215a0a5004000b0e15254b524c030a3f2964643d120d1230e9e93a3fd6e826abbd3c3e302a07a37e0901373ae01e0008f707250d171df81a53a5405d41895ac825e0100ec20313c0d91cddccd3d0c7efcca9bd88908fecb0f9cfddf1eff4e7a1b1eae482f0fda6e6e1928b86d888ed90999f8797a7cf
      flags: 0
    UnityEditor.ShaderGraph.ToggleSettings:
      value: 18135d1527590858060c032302276919051e1a26296a7c243f3c187fa0e92708f0e220e0e22d09352a0bed30017c5b2be01f0c47b40219221f1ded0b12eb1f0127cc0bcc18c41a5e910d0edbc85193e0dadadbf8e8f9e8ced7dba5e0b6aaacdbf4e5a0fca5bae582b7
      flags: 0
    vcSharedLogLevel:
      value: 0d5e400f0650
      flags: 0
  m_VCAutomaticAdd: 1
  m_VCDebugCom: 0
  m_VCDebugCmd: 0
  m_VCDebugOut: 0
  m_SemanticMergeMode: 2
  m_VCShowFailedCheckout: 1
  m_VCOverwriteFailedCheckoutAssets: 1
  m_VCProjectOverlayIcons: 1
  m_VCHierarchyOverlayIcons: 1
  m_VCOtherOverlayIcons: 1
  m_VCAllowAsyncUpdate: 0
